Id,updates,personal,promotions,forums,purchases,travel,spam,social
0,0.07910357503308159,0.9178053057992328,0.06267878368971935,0.02637105415551812,0.008765687815074367,0.0029222828834610626,0.003518246066690898,0.9143397210561169
1,0.139860302680316,0.9178197034799817,0.8547409433768244,0.02637105415551812,0.00874012200715374,0.002903333554031451,0.0035208635121605574,0.0063207944774233546
2,0.07902322731663332,0.9178641691185142,0.008182795070844606,0.6467794887109578,0.008167841653990638,0.0028297338179327264,0.0008274578405808516,0.004521996940364717
3,0.07910982441344537,0.9178195503354244,0.062721560912363,0.02637105415551812,0.008766425489071451,0.0029222828834610626,0.003517478430610722,0.9142689233746045
4,0.876456044051891,0.9352506756695663,0.06271387761312389,0.02637105415551812,0.008762408132609189,0.0028975134585482614,0.003452155752035793,0.006356068807154543
5,0.07901701213243888,0.9230454457847136,1.0000000994736041e-07,0.9999999999999699,3.869607881731624e-05,0.00022329918820131328,1.0000000994736041e-07,1.0000000994736041e-07
6,0.07906699921655205,0.9178561299145084,0.008192500454076181,0.6468388713147223,0.00817313993702687,0.002830253770741616,0.0008272161253456853,0.0045247506160064075
7,0.8764950528992518,0.27771728073686724,0.06266796232479169,0.00011003487771367717,0.008742888256640735,0.0029197604406412873,0.003507389186726011,0.00632887892165702
8,0.8766059312655418,0.27752642278457135,0.06257961136875068,0.00011013026064654638,0.00875895527924558,0.0029242593036844476,0.0033563349503302766,0.006013168064497695
9,0.8766059312655418,0.27752642278457135,0.06257961136875068,0.00011013026064654638,0.00875895527924558,0.0029242593036844476,0.0033563349503302766,0.006013168064497695
10,0.546822191582017,0.8516441528797956,0.2081545702006996,0.026393767092933396,0.00914741887301884,0.002926785632511478,0.003563711537371674,0.007498493118760953
11,0.0790499671894023,0.917819928456814,0.06271030362348846,0.04700466338532438,0.008743691156059165,0.0029222828834610626,0.003510162557367341,0.006332112317902189
12,0.0790170121321256,0.9178803548040954,0.008207008906319096,0.6470628546924905,0.008157367757788601,0.002829334513228122,0.0028113307589477405,0.004508932314473511
13,0.07901701213213988,0.9178107815246895,0.06274765064608125,0.13829134337336307,0.00874799132875679,0.002924818956173709,0.0035068412031231825,0.006329042008830718
14,0.8765136178069065,0.9177802624724855,0.06269916232617902,0.13829151381079363,0.008767853663062396,0.002923650677132255,0.0033636823106679152,0.006019233327562426
15,0.8764026677906926,0.9178520222723933,0.06278767076182158,0.13818829170255875,0.008751770341670647,0.0029191527502807663,0.0035150671416879346,0.00633526238890047
16,0.8765061392641867,0.9178026732109458,0.0627370091102181,0.02637105415551812,0.008760753803628082,0.0029222828834610626,0.003514833158644973,0.0063582799525823035
17,0.07901701213212448,0.917915121231742,0.0028747806826002727,0.8611804207761885,0.007877163279584683,0.0027827675019301986,0.002517146649234221,0.0038056869998504945
18,0.07906204778959036,0.2774194541140271,0.8853722806452446,0.05729119289955814,0.008754720466343381,0.002927007204692061,0.0035188435406424386,0.006351090869374823
19,0.8764663098274688,0.5158222840931438,0.06270716384794628,0.02637105415551812,0.008765330791900281,0.0029222828834610626,0.0035205724434674464,0.006352164332217842
20,0.07911029162009445,0.9178068024190299,0.8853265579987851,0.02637105415551812,0.008765565944630361,0.0029222828834610626,0.0035194210332067585,0.006346624695295296
21,0.07910796050696275,0.9178017973398463,0.06271630286369141,0.02637105415551812,0.008765194192971065,0.0029222828834610626,0.00351966064901136,0.9142998394038114
22,0.13529778077531107,0.2774375085889171,0.6820284554493337,0.04110663775909651,0.008750489053564082,0.0029249591561461966,0.0035174726206611776,0.006349790294962189
23,0.07909997333118181,0.9177956872579717,0.06260631597561758,0.04695947422703866,0.008760595371158286,0.002923232335113664,0.0010328635309119797,0.006354322427473419
24,0.8764707088208511,0.91781790626297,0.06269798545457961,0.02637105415551812,0.008763390318728166,0.0029222828834610626,0.003519313472494811,0.006352305749752064
25,0.8764950528992518,0.27771728073686724,0.06266796232479169,0.00011003487771367717,0.008742888256640735,0.0029197604406412873,0.003507389186726011,0.00632887892165702
26,0.0791151166580123,0.9179597431301335,0.0626767687740598,0.2323104800716123,0.008484568314957861,0.002857718729142584,0.002564365446642249,0.004924173251743526
27,0.07901701213213988,0.9178107815246895,0.06274765064608125,0.13829134337336307,0.00874799132875679,0.002924818956173709,0.0035068412031231825,0.006329042008830718
28,0.07912759248367507,0.2775074771155476,0.02338327834618902,0.8613912716779407,0.008439695478826718,0.002874186315314462,0.003139644467112395,0.005343001486102576
29,0.0790499671894023,0.917819928456814,0.06271030362348846,0.04700466338532438,0.008743691156059165,0.0029222828834610626,0.003510162557367341,0.006332112317902189
30,0.8764861123682627,0.8517646445707884,0.06272203149943173,0.02637105415551812,0.008762648140864386,0.0029222828834610626,0.0035198149907796324,0.006352660681721671
31,0.07898114686615017,0.9179139380840715,0.8854269450322327,0.02637105415551812,0.008744541746835114,0.00291879564073788,0.003516155106437866,0.006351945964311261
32,0.07903747709472243,0.27749252003828323,0.06273629825035389,0.8612307571758736,0.008761607832923806,0.0029237286432340485,0.0035175870151225985,0.006350461697350963
33,0.07897326553238529,0.9178883918387165,0.008197286357616606,0.6470034891971033,0.008152079686065739,0.002828814729271747,0.002812152180164127,0.004506188261710812
34,0.8766059312655418,0.27752642278457135,0.06257961136875068,0.00011013026064654638,0.00875895527924558,0.0029242593036844476,0.0033563349503302766,0.006013168064497695
35,0.18730245505570503,0.5468208405190074,0.6408505305301763,0.05729119289955814,0.008759392034052462,0.0029791158800048876,0.004089164377833957,0.007392497452766945
36,0.07910982441344537,0.9178195503354244,0.062721560912363,0.02637105415551812,0.008766425489071451,0.0029222828834610626,0.003517478430610722,0.9142689233746045
37,0.07910982441344537,0.9178195503354244,0.062721560912363,0.02637105415551812,0.008766425489071451,0.0029222828834610626,0.003517478430610722,0.9142689233746045
38,0.8766191517305877,0.9178482613473257,0.06269716078274407,0.026393767092933396,0.008759005359805845,0.0029241970623195175,0.0033635129378781895,0.006034953374629177
39,0.07910796050696275,0.9178017973398463,0.06271630286369141,0.02637105415551812,0.008765194192971065,0.0029222828834610626,0.00351966064901136,0.9142998394038114
40,0.07910796050696275,0.9178017973398463,0.06271630286369141,0.02637105415551812,0.008765194192971065,0.0029222828834610626,0.00351966064901136,0.9142998394038114
41,0.07901701213213988,0.9178107815246895,0.06274765064608125,0.13829134337336307,0.00874799132875679,0.002924818956173709,0.0035068412031231825,0.006329042008830718
42,0.8764942753775693,0.9177905257253792,0.06265819871492533,0.05729119289955814,0.008756872618620317,0.0029249354623466554,0.0035198257995694257,0.006345470070475346
43,0.07908168353446221,0.9178461503476236,0.0627904494983086,0.01400439689887659,0.008744790032206962,0.0029239849930894467,0.003510942316955937,0.006341020159550774
44,0.6768672877047068,0.5467053973133662,0.14071109023448689,0.05729119289955814,0.008767097910370437,0.0029816573086444208,0.003998212525705708,0.00720877690203098
45,0.07907302467942964,0.9178421273028755,0.0627576298492275,0.02637105415551812,0.008740029830706085,0.0029222828834610626,0.003507924032748234,0.0063520335447857686
46,0.8766059312655418,0.27752642278457135,0.06257961136875068,0.00011013026064654638,0.00875895527924558,0.0029242593036844476,0.0033563349503302766,0.006013168064497695
47,0.0790648239583802,0.9178321331960557,0.8852609593105835,0.026393767092933396,0.00876046954235965,0.002924297679633475,0.003367386149557067,0.0060351369465994325
48,0.07910862211447035,0.27751780327021586,0.8853623026520151,0.02637105415551812,0.008765184595848746,0.0029222828834610626,0.003516326844060261,0.006358364795108157
49,0.07910796050696275,0.9178017973398463,0.06271630286369141,0.02637105415551812,0.008765194192971065,0.0029222828834610626,0.00351966064901136,0.9142998394038114
50,0.07905374906360442,0.9178620115758667,0.8854055652168812,0.026393767092933396,0.008760775527838728,0.0029235876667737474,0.003518196877521868,0.0063569210197273055
51,0.13529778077531107,0.2774375085889171,0.6820284554493337,0.04110663775909651,0.008750489053564082,0.0029249591561461966,0.0035174726206611776,0.006349790294962189
52,0.11714159131124773,0.9177992121947324,0.7386389104833517,0.02637105415551812,0.008765514942802081,0.0029222828834610626,0.0035207393742732415,0.006353437718758805
53,0.3834937154028892,0.7911163326320908,0.286084229817175,0.05729119289955814,0.008774810555752905,0.003038553726075939,0.004548460751513843,0.008174647991396179
54,0.07897863960932995,0.9178989071938737,0.7877358744821451,0.05729119289955814,0.008742101660626387,0.002918474155914177,0.0036800077606264935,0.006496203140539152
55,0.8764942753775693,0.9177905257253792,0.06265819871492533,0.05729119289955814,0.008756872618620317,0.0029249354623466554,0.0035198257995694257,0.006345470070475346
56,0.8764971868447169,0.9178190148499726,0.0626666404763664,0.02637105415551812,0.008761544498993332,0.0029222828834610626,0.00351761180326494,0.006352702012544059
57,0.07912759248367507,0.2775074771155476,0.02338327834618902,0.8613912716779407,0.008439695478826718,0.002874186315314462,0.003139644467112395,0.005343001486102576
58,0.07899668002597021,0.917933817805236,0.8854279269907604,0.02637105415551812,0.008745640474746881,0.0029197604406412873,0.00351898494237515,0.006349379485129034
59,0.8765083636197766,0.9178068851739883,0.0626796043060693,0.02637105415551812,0.008765654218980831,0.0029222828834610626,0.0035165147146417387,0.0063582090081828095
60,0.8766191517305877,0.9178482613473257,0.06269716078274407,0.026393767092933396,0.008759005359805845,0.0029241970623195175,0.0033635129378781895,0.006034953374629177
61,0.07906699921655451,0.9177865378572267,0.06264360520738968,0.13817452493255392,0.008764903845159102,0.0029257692316591883,0.0010318861156202674,0.006351241357598482
62,0.876402667790685,0.9178867996758059,0.02339890821670429,0.35370053891326175,0.008451175779490465,0.002871107691170018,0.003147256132491888,0.005347318195927083
63,0.8764267923898063,0.9177993371274111,0.06272784245256284,0.02637105415551812,0.008745347344189405,0.0029222828834610626,0.0035150691119649915,0.006320159681389365
64,0.07910357503308159,0.9178053057992328,0.06267878368971935,0.02637105415551812,0.008765687815074367,0.0029222828834610626,0.003518246066690898,0.9143397210561169
65,0.11714159131124773,0.9178020356533803,0.7386389104833517,0.02637105415551812,0.008763957293300173,0.0029222828834610626,0.00351950887279046,0.0063511963685670995
66,0.07906699921655451,0.9177865378572267,0.06264360520738968,0.13817452493255392,0.008764903845159102,0.0029257692316591883,0.0010318861156202674,0.006351241357598482
67,0.07901701213209658,0.9178455749031459,0.0233830764487177,0.3538884825073255,0.008447526382213466,0.0028766806547872083,0.0031398907660369108,0.005342067256549605
68,0.8764541604694079,0.9177847425948886,0.06274700517528706,0.04110663775909651,0.008750489053564082,0.0029269499826132354,0.0035172364416081307,0.006353722656009966
69,0.8765136178069065,0.9177802624724855,0.06269916232617902,0.13829151381079363,0.008767853663062396,0.002923650677132255,0.0033636823106679152,0.006019233327562426
70,0.546822191582017,0.8516441528797956,0.2081545702006996,0.026393767092933396,0.00914741887301884,0.002926785632511478,0.003563711537371674,0.007498493118760953
71,0.0790170121321256,0.9178803548040954,0.008207008906319096,0.6470628546924905,0.008157367757788601,0.002829334513228122,0.0028113307589477405,0.004508932314473511
72,0.0790648239583802,0.9178321331960557,0.8852609593105835,0.026393767092933396,0.00876046954235965,0.002924297679633475,0.003367386149557067,0.0060351369465994325
73,0.8764674098934416,0.917808561410032,0.0627164160021252,0.04110663775909651,0.008750489053564082,0.0029248545526010463,0.003515067692480054,0.006355368706990305
74,0.8764664945809774,0.9178067678138617,0.06270282882802199,0.02637105415551812,0.008762384174271524,0.0029222828834610626,0.003517305716761501,0.006348967077614822
75,0.07901701213209658,0.9178455749031459,0.0233830764487177,0.3538884825073255,0.008447526382213466,0.0028766806547872083,0.0031398907660369108,0.005342067256549605
76,0.07901701213213988,0.9178107815246895,0.06274765064608125,0.13829134337336307,0.00874799132875679,0.002924818956173709,0.0035068412031231825,0.006329042008830718
77,0.8766059312655418,0.27752642278457135,0.06257961136875068,0.00011013026064654638,0.00875895527924558,0.0029242593036844476,0.0033563349503302766,0.006013168064497695
78,0.0790170121321256,0.9178803548040954,0.008207008906319096,0.6470628546924905,0.008157367757788601,0.002829334513228122,0.0028113307589477405,0.004508932314473511
79,0.8525837101966315,0.9178040486244771,0.0627241368717967,0.05729119289955814,0.008759253529547241,0.0029262465811811596,0.0035180374384124317,0.0063583495276202705
80,0.07901701213213988,0.9178107815246895,0.06274765064608125,0.13829134337336307,0.00874799132875679,0.002924818956173709,0.0035068412031231825,0.006329042008830718
81,0.8764861123682627,0.8517646445707884,0.06272203149943173,0.02637105415551812,0.008762648140864386,0.0029222828834610626,0.0035198149907796324,0.006352660681721671
82,0.07910357503308159,0.9178053057992328,0.06267878368971935,0.02637105415551812,0.008765687815074367,0.0029222828834610626,0.003518246066690898,0.9143397210561169
83,0.8764787435253572,0.917801602248682,0.06271444313286374,0.02637105415551812,0.008761485335829986,0.0029222828834610626,0.00351803200577909,0.00635681617079338
84,0.38701698641188415,0.8061665323628662,0.13965025391983457,0.02088618375961916,0.009086579060394107,0.0028879521399228733,0.0027142824900057505,0.007340610922202872
85,0.546822191582017,0.8516441528797956,0.2081545702006996,0.026393767092933396,0.00914741887301884,0.002926785632511478,0.003563711537371674,0.007498493118760953
86,0.07901701213213988,0.9178107815246895,0.06274765064608125,0.13829134337336307,0.00874799132875679,0.002924818956173709,0.0035068412031231825,0.006329042008830718
87,0.8764802567663117,0.9178477567406496,0.06272517934797456,0.04110663775909651,0.008750489053564082,0.0029190528251125964,0.003517529308416947,0.006353618835953775
88,0.8766059312655418,0.27752642278457135,0.06257961136875068,0.00011013026064654638,0.00875895527924558,0.0029242593036844476,0.0033563349503302766,0.006013168064497695
89,0.07901701213213988,0.9178107815246895,0.06274765064608125,0.13829134337336307,0.00874799132875679,0.002924818956173709,0.0035068412031231825,0.006329042008830718
90,0.8765061392641867,0.9178026732109458,0.0627370091102181,0.02637105415551812,0.008760753803628082,0.0029222828834610626,0.003514833158644973,0.0063582799525823035
91,0.8764611021262245,0.9178486988670084,0.06269912360800857,0.017196520759880474,0.008732463774550095,0.002925969348006834,0.0033151668675617915,0.006356688853722788
92,0.07903242514604718,0.9178541004292805,0.0014211928025201746,0.1382128169036302,0.008742470193510257,0.0029232463534285043,0.003251165588504433,0.0057935158076681675
93,0.07901701213209658,0.9178455749031459,0.0233830764487177,0.3538884825073255,0.008447526382213466,0.0028766806547872083,0.0031398907660369108,0.005342067256549605
94,0.8766059312655418,0.27752642278457135,0.06257961136875068,0.00011013026064654638,0.00875895527924558,0.0029242593036844476,0.0033563349503302766,0.006013168064497695
95,0.07910777614169033,0.9178063390512294,0.06269791356969538,0.02637105415551812,0.008765514942802081,0.0029222828834610626,0.003519824847193689,0.9143001474388973
96,0.876508283627013,0.9179199668401673,0.06278566658220809,0.02637105415551812,0.00874293824547046,0.0029196982950165182,0.0035148901479717435,0.006351807159344308
97,0.07910689557883574,0.9177823422902786,0.0014190554551106731,0.13831605439096092,0.008758536448959913,0.002927750586774175,0.003111144009786872,0.005504494204407311
98,0.8764861123682627,0.8517646445707884,0.06272203149943173,0.02637105415551812,0.008762648140864386,0.0029222828834610626,0.0035198149907796324,0.006352660681721671
99,0.13994293134070182,0.9177954622204226,0.8545204480207239,0.026345371685612615,0.008757019332147275,0.002904276850061396,0.0010360126330634127,0.006342964920225634
100,0.3896470685538989,0.855600254813919,0.2568742222570608,0.05729119289955814,0.009144578999130223,0.002928841985969289,0.003717189338216703,0.006496203140539152
101,0.8764674098934416,0.917808561410032,0.0627164160021252,0.04110663775909651,0.008750489053564082,0.0029248545526010463,0.003515067692480054,0.006355368706990305
102,0.07903242514604718,0.9178541004292805,0.0014211928025201746,0.1382128169036302,0.008742470193510257,0.0029232463534285043,0.003251165588504433,0.0057935158076681675
103,0.38370144350744256,0.7911090153647061,0.02295797231059727,0.057247051189652676,0.00879052018923894,0.0029564734882889434,0.004557999612861035,0.00819687866890453
104,0.07902871966921787,0.9178242673603154,0.8347662362990965,0.057339477129671794,0.00876633700628004,0.0029249278212308766,0.0035153300652784915,0.006342115009906641
105,0.07905842567391601,0.917957890578008,0.0028718962941342036,0.9860887325986956,0.007646276644038532,0.0027232903900276657,0.0018345733176536837,0.002950655992980358
106,0.8764485148665978,0.9178046189187749,0.011469054325806985,0.04107454942585581,0.008759877674346234,0.0028514163815022394,0.0035155659062840344,0.006347979729612859
107,0.8764674098934416,0.917808561410032,0.0627164160021252,0.04110663775909651,0.008750489053564082,0.0029248545526010463,0.003515067692480054,0.006355368706990305
108,0.0790648239583802,0.9178321331960557,0.8852609593105835,0.026393767092933396,0.00876046954235965,0.002924297679633475,0.003367386149557067,0.0060351369465994325
109,0.07903747709472243,0.27749252003828323,0.06273629825035389,0.8612307571758736,0.008761607832923806,0.0029237286432340485,0.0035175870151225985,0.006350461697350963
110,0.8765136178069065,0.9177802624724855,0.06269916232617902,0.13829151381079363,0.008767853663062396,0.002923650677132255,0.0033636823106679152,0.006019233327562426
111,0.07912759248359981,0.2774149585199389,0.06274816102878157,0.6474648533893962,0.008739882294379376,0.0029222828834610626,0.0035065661265185127,0.006330148718175552
112,0.07910357503308159,0.9178053057992328,0.06267878368971935,0.02637105415551812,0.008765687815074367,0.0029222828834610626,0.003518246066690898,0.9143397210561169
113,0.8765083636197766,0.9178068851739883,0.0626796043060693,0.02637105415551812,0.008765654218980831,0.0029222828834610626,0.0035165147146417387,0.0063582090081828095
114,0.07901701213213988,0.9178107815246895,0.06274765064608125,0.13829134337336307,0.00874799132875679,0.002924818956173709,0.0035068412031231825,0.006329042008830718
115,0.07901701213209658,0.9178455749031459,0.0233830764487177,0.3538884825073255,0.008447526382213466,0.0028766806547872083,0.0031398907660369108,0.005342067256549605
116,0.07901701213213988,0.9178107815246895,0.06274765064608125,0.13829134337336307,0.00874799132875679,0.002924818956173709,0.0035068412031231825,0.006329042008830718
117,0.07901701213213988,0.9178107815246895,0.06274765064608125,0.13829134337336307,0.00874799132875679,0.002924818956173709,0.0035068412031231825,0.006329042008830718
118,0.07901701213213988,0.9178107815246895,0.06274765064608125,0.13829134337336307,0.00874799132875679,0.002924818956173709,0.0035068412031231825,0.006329042008830718
119,0.07897637087168267,0.9178264227529719,0.8855027200713743,0.05729119289955814,0.008740635806495775,0.0029186276092186907,0.0035179381182216946,0.0063441221403097514
120,0.07910357503308159,0.9178053057992328,0.06267878368971935,0.02637105415551812,0.008765687815074367,0.0029222828834610626,0.003518246066690898,0.9143397210561169
121,0.8765136178069065,0.9177802624724855,0.06269916232617902,0.13829151381079363,0.008767853663062396,0.002923650677132255,0.0033636823106679152,0.006019233327562426
122,0.0790170121321256,0.9178803548040954,0.008207008906319096,0.6470628546924905,0.008157367757788601,0.002829334513228122,0.0028113307589477405,0.004508932314473511
123,0.07910357503308159,0.9178053057992328,0.06267878368971935,0.02637105415551812,0.008765687815074367,0.0029222828834610626,0.003518246066690898,0.9143397210561169
124,0.07910796050696275,0.9178017973398463,0.06271630286369141,0.02637105415551812,0.008765194192971065,0.0029222828834610626,0.00351966064901136,0.9142998394038114
125,0.20547821676814346,0.9178254649816893,0.8852827760098445,0.057339477129671794,0.00875796402640167,0.0029251860549972,0.0035160968461939095,0.00635155765733553
126,0.3834937154028892,0.7911163326320908,0.286084229817175,0.05729119289955814,0.008774810555752905,0.003038553726075939,0.004548460751513843,0.008174647991396179
127,0.13999178063765555,0.8518365163099691,0.8545487679094427,0.1381242950834385,0.008476446353220736,0.002850784393769341,0.002568897439235113,0.005992013228323399
128,0.3837280476543634,0.7909588643008605,0.28577693294659,0.057339477129671794,0.008790936156017714,0.0030432355969897025,0.004352585328076438,0.007766960224905246
129,0.5467933206348832,0.8517590458637212,0.015104212718830836,0.026350290899053837,0.009146986064826003,0.0028433429440960323,0.0037319070460666327,0.00791356908556917
130,0.07905842567391255,0.9178536006148444,0.0626886351116819,0.6473290465410212,0.00849161409821329,0.0028623062103519392,0.002555928180139572,0.004907328734741864
131,0.8765136178069065,0.9177802624724855,0.06269916232617902,0.13829151381079363,0.008767853663062396,0.002923650677132255,0.0033636823106679152,0.006019233327562426
132,0.876452867308243,0.9178016876248957,0.06272538662867914,0.02637105415551812,0.008763536139887979,0.0029222828834610626,0.0035181684900880304,0.006353187103098524
133,0.07909634096523639,0.9178154073754216,0.8853501864519648,0.02637105415551812,0.008764999184579096,0.0029222828834610626,0.003520570540924393,0.006354522038549114
134,0.3834937154028892,0.7911163326320908,0.286084229817175,0.05729119289955814,0.008774810555752905,0.003038553726075939,0.004548460751513843,0.008174647991396179
135,0.8764637805570061,0.9178039263059897,0.06271669672802173,0.02637105415551812,0.008761647421362317,0.0029222828834610626,0.0035183346777286823,0.0063519349375655565
136,0.07905842567391255,0.9178536006148444,0.0626886351116819,0.6473290465410212,0.00849161409821329,0.0028623062103519392,0.002555928180139572,0.004907328734741864
137,0.07918915982391933,0.9177750816772299,0.00019973387228145397,0.046965869411283494,0.008775511341842627,0.0028484348899968015,0.003524422947510792,0.006375129534265888
138,0.07910796050696275,0.9178017973398463,0.06271630286369141,0.02637105415551812,0.008765194192971065,0.0029222828834610626,0.00351966064901136,0.9142998394038114
139,0.07901701213222605,0.9182620453991601,1.0000000994736041e-07,0.9999999999979362,0.005553146276247607,0.0023572316595941068,0.0008333984565495496,0.0006981221767388867
140,0.07901701213213368,0.9179498741902667,0.0010067329275810343,0.9544772058122329,0.007606572674169374,0.0027369668053422807,0.002253743180226064,0.0032120983415603777
141,0.8765024895282324,0.9177922329784196,0.06267507628958169,0.02637105415551812,0.00876685388312727,0.0029222828834610626,0.0035197169296947123,0.0063519558710628974
142,0.8764950528992518,0.27771728073686724,0.06266796232479169,0.00011003487771367717,0.008742888256640735,0.0029197604406412873,0.003507389186726011,0.00632887892165702
143,0.8764935973945682,0.2774683661382555,0.06272821542028227,0.05729119289955814,0.008758390996820629,0.0029271230398418362,0.0035198144256817316,0.006347069418959172
144,0.07910796050696275,0.9178017973398463,0.06271630286369141,0.02637105415551812,0.008765194192971065,0.0029222828834610626,0.00351966064901136,0.9142998394038114
145,0.07910818992976336,0.9177767147449669,0.8853522851123427,0.05729119289955814,0.00876533138118018,0.002926025414647555,0.003520058398173489,0.006358309075289756
146,0.8764455275941345,0.9177903216640064,0.0627507760659371,0.026345371685612615,0.008763509937458355,0.002923232335113664,0.001095821129168028,0.006344372104457516
147,0.07903883146836645,0.9201000860025974,0.8854561397666052,0.05729119289955814,0.008753465358662456,0.0029098501316355157,0.0035143332091202963,0.005202633192310698
148,0.07901701213213988,0.9178107815246895,0.06274765064608125,0.13829134337336307,0.00874799132875679,0.002924818956173709,0.0035068412031231825,0.006329042008830718
149,0.876508283627013,0.9179199668401673,0.06278566658220809,0.02637105415551812,0.00874293824547046,0.0029196982950165182,0.0035148901479717435,0.006351807159344308
150,0.07908168353446221,0.9178461503476236,0.0627904494983086,0.01400439689887659,0.008744790032206962,0.0029239849930894467,0.003510942316955937,0.006341020159550774
151,0.0790499671894023,0.917819928456814,0.06271030362348846,0.04700466338532438,0.008743691156059165,0.0029222828834610626,0.003510162557367341,0.006332112317902189
152,0.07907302467942964,0.9178421273028755,0.0627576298492275,0.02637105415551812,0.008740029830706085,0.0029222828834610626,0.003507924032748234,0.0063520335447857686
153,0.07901701213213602,0.9180193397168104,0.00012345374568359103,0.99583800753275,0.007092929175421023,0.0026476141432213857,0.0018067361737448041,0.002288197018232348
154,0.8764861123682627,0.8517646445707884,0.06272203149943173,0.02637105415551812,0.008762648140864386,0.0029222828834610626,0.0035198149907796324,0.006352660681721671
155,0.079193678999097,0.2774060915301518,0.0038449655424124176,0.6472838872302324,0.008755529487511042,0.0028433429440960323,0.0035139205726023356,0.0063473678090995205
156,0.07906699921655451,0.9177865378572267,0.06264360520738968,0.13817452493255392,0.008764903845159102,0.0029257692316591883,0.0010318861156202674,0.006351241357598482
157,0.07905612824572082,0.9178397117418213,0.8853988966413745,0.026393767092933396,0.008758565697246057,0.002922703960801952,0.003367709528636537,0.006006500470967936
158,0.8766191517305877,0.9178482613473257,0.06269716078274407,0.026393767092933396,0.008759005359805845,0.0029241970623195175,0.0033635129378781895,0.006034953374629177
159,0.876508283627013,0.9179199668401673,0.06278566658220809,0.02637105415551812,0.00874293824547046,0.0029196982950165182,0.0035148901479717435,0.006351807159344308
160,0.8764950528992518,0.27771728073686724,0.06266796232479169,0.00011003487771367717,0.008742888256640735,0.0029197604406412873,0.003507389186726011,0.00632887892165702
161,0.07905557312807383,0.9178422277722162,0.8852739387208939,0.026393767092933396,0.008760611803629657,0.0029232930174357455,0.003364723430262366,0.006035085260468493
162,0.8764026677906926,0.9178520222723933,0.06278767076182158,0.13818829170255875,0.008751770341670647,0.0029191527502807663,0.0035150671416879346,0.00633526238890047
163,0.07901701213213988,0.9178107815246895,0.06274765064608125,0.13829134337336307,0.00874799132875679,0.002924818956173709,0.0035068412031231825,0.006329042008830718
164,0.07906699921655451,0.9177865378572267,0.06264360520738968,0.13817452493255392,0.008764903845159102,0.0029257692316591883,0.0010318861156202674,0.006351241357598482
165,0.07906181951534896,0.9177970588915075,0.8853857173355352,0.05729119289955814,0.008764390967096428,0.002925462844342549,0.0035175243023336453,0.006346886162014263
166,0.3837280476543634,0.27745395619113716,0.28577693294659,0.057339477129671794,0.008762089505284622,0.0029236401541772334,0.0035166385140497445,0.006345223252583266
167,0.07904996718948878,0.917889494651298,0.008201800744783503,0.3538978667907452,0.008153357528348299,0.002826881220567783,0.0028139935056798802,0.004511120082827037
168,0.07906674544181647,0.9178236563957292,0.8853612299024413,0.05729119289955814,0.008759875522053788,0.0029254522375888508,0.0035170177250007937,0.006346879990804186
169,0.07910796050696275,0.9178017973398463,0.06271630286369141,0.02637105415551812,0.008765194192971065,0.0029222828834610626,0.00351966064901136,0.9142998394038114
170,0.8766059312655418,0.27752642278457135,0.06257961136875068,0.00011013026064654638,0.00875895527924558,0.0029242593036844476,0.0033563349503302766,0.006013168064497695
171,0.07901701213213988,0.9178107815246895,0.06274765064608125,0.13829134337336307,0.00874799132875679,0.002924818956173709,0.0035068412031231825,0.006329042008830718
172,0.8764026677906926,0.9178520222723933,0.06278767076182158,0.13818829170255875,0.008751770341670647,0.0029191527502807663,0.0035150671416879346,0.00633526238890047
173,0.3837280476543634,0.7909588643008605,0.28577693294659,0.057339477129671794,0.008790936156017714,0.0030432355969897025,0.004352585328076438,0.007766960224905246
174,0.07910982441344537,0.9178195503354244,0.062721560912363,0.02637105415551812,0.008766425489071451,0.0029222828834610626,0.003517478430610722,0.9142689233746045
175,0.5084205239732925,0.8416573910279541,0.10816458141109739,0.05729119289955814,0.008762109995027105,0.002938992259008562,0.0036485983220662524,0.04187714474752314
176,0.8764637805570061,0.9178039263059897,0.06271669672802173,0.02637105415551812,0.008761647421362317,0.0029222828834610626,0.0035183346777286823,0.0063519349375655565
177,0.8764267923898063,0.9177993371274111,0.06272784245256284,0.02637105415551812,0.008745347344189405,0.0029222828834610626,0.0035150691119649915,0.006320159681389365
178,0.5467093430393059,0.8518365163099691,0.208237183798323,0.2323104800716123,0.008863065659547066,0.0028598243327918283,0.0027142824900057505,0.006119539535741653
179,0.876477174520853,0.9178277897354928,0.06268356340142325,0.13807154636302743,0.00876869015328416,0.002920101185122155,0.0010343068631276599,0.006357483538811969
180,0.0790810144552911,0.917835447780632,0.02295797231059727,0.057247051189652676,0.008755448121088432,0.002926257553102181,0.0035150889903797066,0.006347001102813483
181,0.8764674098934416,0.917808561410032,0.0627164160021252,0.04110663775909651,0.008750489053564082,0.0029248545526010463,0.003515067692480054,0.006355368706990305
182,0.07910777614169033,0.9178063390512294,0.06269791356969538,0.02637105415551812,0.008765514942802081,0.0029222828834610626,0.003519824847193689,0.9143001474388973
183,0.5533906084900589,0.9304859972030198,0.3414910085448091,0.05729119289955814,0.008746528162839898,0.002899324779121802,0.0035233297871003566,0.006406572322411007
184,0.07903883146836645,0.9201000860025974,0.8854561397666052,0.05729119289955814,0.008753465358662456,0.0029098501316355157,0.0035143332091202963,0.005202633192310698
185,0.5467093430393059,0.8518365163099691,0.208237183798323,0.2323104800716123,0.008863065659547066,0.0028598243327918283,0.0027142824900057505,0.006119539535741653
186,0.8764903247189414,0.9177803398415535,0.06271442578344821,0.05729119289955814,0.00875833925106001,0.002925767820023379,0.0035165980130986113,0.006346369580150977
187,0.10222465528002525,0.917801132498569,0.5657436416933826,0.05729119289955814,0.008762109995027105,0.002925583542918171,0.0035160089249755156,0.006350578551655017
188,0.07904538276576246,0.9178783061473023,0.02339998411281985,0.04693775174189278,0.008448398439295002,0.0028734869110120073,0.0032903348283814084,0.005338295953648078
189,0.8764674098934416,0.917808561410032,0.0627164160021252,0.04110663775909651,0.008750489053564082,0.0029248545526010463,0.003515067692480054,0.006355368706990305
190,0.07912759248367507,0.2775074771155476,0.02338327834618902,0.8613912716779407,0.008439695478826718,0.002874186315314462,0.003139644467112395,0.005343001486102576
191,0.07901701213209658,0.9178455749031459,0.0233830764487177,0.3538884825073255,0.008447526382213466,0.0028766806547872083,0.0031398907660369108,0.005342067256549605
192,0.8764935973945682,0.2774683661382555,0.06272821542028227,0.05729119289955814,0.008758390996820629,0.0029271230398418362,0.0035198144256817316,0.006347069418959172
193,0.07910982441344537,0.9178195503354244,0.062721560912363,0.02637105415551812,0.008766425489071451,0.0029222828834610626,0.003517478430610722,0.9142689233746045
194,0.07901701213213988,0.9178107815246895,0.06274765064608125,0.13829134337336307,0.00874799132875679,0.002924818956173709,0.0035068412031231825,0.006329042008830718
195,0.07910818992976336,0.9177767147449669,0.8853522851123427,0.05729119289955814,0.00876533138118018,0.002926025414647555,0.003520058398173489,0.006358309075289756
196,0.07910777614169033,0.9178063390512294,0.06269791356969538,0.02637105415551812,0.008765514942802081,0.0029222828834610626,0.003519824847193689,0.9143001474388973
197,0.8765136178069065,0.9177802624724855,0.06269916232617902,0.13829151381079363,0.008767853663062396,0.002923650677132255,0.0033636823106679152,0.006019233327562426
198,0.8764881621669154,0.9178068068699813,0.06271697456664224,0.01399866205218251,0.008762019009051856,0.0029222828834610626,0.0035179198339682235,0.006352125227939606
199,0.07901701213215599,0.9179846136839066,0.0003525413938350816,0.9860727359988527,0.0073452671811824605,0.0026919198184280294,0.0020179007304555385,0.0027110781617824802
200,0.8764724855923394,0.5159375565809988,0.02337463865384761,0.0820863407354391,0.008464804487822724,0.002874186315314462,0.003151525544210311,0.005362213699945848
201,0.8764664945809774,0.9178067678138617,0.06270282882802199,0.02637105415551812,0.008762384174271524,0.0029222828834610626,0.003517305716761501,0.006348967077614822
202,0.5874953200408011,0.8259382242338633,0.16653807509711566,0.04110663775909651,0.008750489053564082,0.002930580426908245,0.0035630992664149705,0.008969312781678685
203,0.8765114715464496,0.27750641836254686,0.023353960387453358,0.0820863407354391,0.008447692198331925,0.002874186315314462,0.003150283857297349,0.00533512787978111
204,0.07901701213213368,0.9179498741902667,0.0010067329275810343,0.9544772058122329,0.007606572674169374,0.0027369668053422807,0.002253743180226064,0.0032120983415603777
205,0.8764026677906926,0.9178520222723933,0.06278767076182158,0.13818829170255875,0.008751770341670647,0.0029191527502807663,0.0035150671416879346,0.00633526238890047
206,0.8764674098934416,0.917808561410032,0.0627164160021252,0.04110663775909651,0.008750489053564082,0.0029248545526010463,0.003515067692480054,0.006355368706990305
207,0.07910796050696275,0.9178017973398463,0.06271630286369141,0.02637105415551812,0.008765194192971065,0.0029222828834610626,0.00351966064901136,0.9142998394038114
208,0.07903242514601878,0.9178888770276401,0.0004976806458319818,0.3537452719541367,0.008442194615738386,0.0028751339305594665,0.0029109637416667115,0.0048900086037495264
209,0.546822191582017,0.8516441528797956,0.2081545702006996,0.026393767092933396,0.00914741887301884,0.002926785632511478,0.003563711537371674,0.007498493118760953
210,0.07901701213213988,0.9178107815246895,0.06274765064608125,0.13829134337336307,0.00874799132875679,0.002924818956173709,0.0035068412031231825,0.006329042008830718
211,0.8764942753775693,0.9177905257253792,0.06265819871492533,0.05729119289955814,0.008756872618620317,0.0029249354623466554,0.0035198257995694257,0.006345470070475346
212,0.8766059312655418,0.27752642278457135,0.06257961136875068,0.00011013026064654638,0.00875895527924558,0.0029242593036844476,0.0033563349503302766,0.006013168064497695
213,0.876508283627013,0.9179199668401673,0.06278566658220809,0.02637105415551812,0.00874293824547046,0.0029196982950165182,0.0035148901479717435,0.006351807159344308
214,0.07903747709472243,0.27749252003828323,0.06273629825035389,0.8612307571758736,0.008761607832923806,0.0029237286432340485,0.0035175870151225985,0.006350461697350963
215,0.07901701213209658,0.9178455749031459,0.0233830764487177,0.3538884825073255,0.008447526382213466,0.0028766806547872083,0.0031398907660369108,0.005342067256549605
216,0.07907501236494724,0.9177908878616284,0.885320560428281,0.02637105415551812,0.008765514942802081,0.0029222828834610626,0.00351808483336207,0.006350957864481166
217,0.8765136178069065,0.9177802624724855,0.06269916232617902,0.13829151381079363,0.008767853663062396,0.002923650677132255,0.0033636823106679152,0.006019233327562426
218,0.07906699921655451,0.9177865378572267,0.06264360520738968,0.13817452493255392,0.008764903845159102,0.0029257692316591883,0.0010318861156202674,0.006351241357598482
219,0.11714159131135765,0.9179985019963663,0.008217747237517625,0.23210263372867732,0.008154156314691414,0.002824167832205085,0.0029462743410359695,0.004763043435261077
220,0.07906699921655247,0.9178213406260805,0.02334192214218295,0.3536754276216392,0.008463858821270936,0.0028776152926836096,0.0009239009753915225,0.005360806864473804
221,0.07912759248367507,0.2775074771155476,0.02338327834618902,0.8613912716779407,0.008439695478826718,0.002874186315314462,0.003139644467112395,0.005343001486102576
222,0.07907449249364316,0.9177930908527524,0.8853764144539699,0.05729119289955814,0.008754442222668836,0.002926003671744292,0.0035184442909807377,0.006356993254715197
223,0.0790499671894023,0.917819928456814,0.06271030362348846,0.04700466338532438,0.008743691156059165,0.0029222828834610626,0.003510162557367341,0.006332112317902189
224,0.8765136178069065,0.9177802624724855,0.06269916232617902,0.13829151381079363,0.008767853663062396,0.002923650677132255,0.0033636823106679152,0.006019233327562426
225,0.587495320040731,0.9177844940462951,0.1665380750971017,0.04110663775909651,0.008750489053564082,0.0029259883554688783,0.0035195477973491277,0.006352952094984773
226,0.8764541604694079,0.9177847425948886,0.06274700517528706,0.04110663775909651,0.008750489053564082,0.0029269499826132354,0.0035172364416081307,0.006353722656009966
227,0.07897326553241087,0.9178188247893897,0.06267792919252169,0.13826036996977417,0.00874232092448431,0.00292428163344705,0.0035078657958588504,0.006325191010296198
228,0.8765456723961499,0.9177980654039398,0.06261929053283385,0.026345371685612615,0.402301100710669,0.002923232335113664,0.0010352410916122268,0.006344411743013514
229,0.11714159131124773,0.9179290203125824,0.06282464452065396,0.02637105415551812,0.008744547695433568,0.0029194779387440436,0.003675161400537292,0.006685655175350897
230,0.079037003757169,0.27742648080864674,0.8854281580978457,0.057339477129671794,0.008755489542759967,0.0029244481275234554,0.0035165737227221554,0.006345090851609177
231,0.07912759248359981,0.2774149585199389,0.06274816102878157,0.6474648533893962,0.008739882294379376,0.0029222828834610626,0.0035065661265185127,0.006330148718175552
232,0.07903747709472243,0.27749252003828323,0.06273629825035389,0.8612307571758736,0.008761607832923806,0.0029237286432340485,0.0035175870151225985,0.006350461697350963
233,0.07901701213209658,0.9178455749031459,0.0233830764487177,0.3538884825073255,0.008447526382213466,0.0028766806547872083,0.0031398907660369108,0.005342067256549605
234,0.0790723434327849,0.9178421224006965,0.06273769779291488,0.05723659286425365,0.00876216910182229,0.0029248145941169236,0.0011278065488957401,0.9142161021119388
235,0.07910796050696275,0.9178017973398463,0.06271630286369141,0.02637105415551812,0.008765194192971065,0.0029222828834610626,0.00351966064901136,0.9142998394038114
236,0.5465678465240423,0.8517646445707459,0.20840275358994179,0.02637105415551812,0.009130640386376558,0.0029222828834610626,0.0037240964868955266,0.007892105830335831
237,0.8764541604694079,0.9177847425948886,0.06274700517528706,0.04110663775909651,0.008750489053564082,0.0029269499826132354,0.0035172364416081307,0.006353722656009966
238,0.07901701213226948,0.918331268972303,1.0000000994736041e-07,0.9999999999999699,0.005178074463302061,0.002280274659812529,0.0006680971645095339,0.000497308177743558
239,0.0790499671894023,0.917819928456814,0.06271030362348846,0.04700466338532438,0.008743691156059165,0.0029222828834610626,0.003510162557367341,0.006332112317902189
240,0.07903883146836645,0.9201000860025974,0.8854561397666052,0.05729119289955814,0.008753465358662456,0.0029098501316355157,0.0035143332091202963,0.005202633192310698
241,0.07910796050696275,0.9178017973398463,0.06271630286369141,0.02637105415551812,0.008765194192971065,0.0029222828834610626,0.00351966064901136,0.9142998394038114
242,0.07908301422295244,0.9178074458410603,0.0038449321792657304,0.1381969025920484,0.008763653018297667,0.002845810520694266,0.003514196225995224,0.006346258091664207
243,0.07909634096523639,0.9178154073754216,0.8853501864519648,0.02637105415551812,0.008764999184579096,0.0029222828834610626,0.003520570540924393,0.006354522038549114
244,0.07901701213212448,0.917915121231742,0.0028747806826002727,0.8611804207761885,0.007877163279584683,0.0027827675019301986,0.002517146649234221,0.0038056869998504945
245,0.8634077671620854,0.8667928807126604,0.049427584060949006,0.05729119289955814,0.00876633136795966,0.0029821904583083045,0.003999972350406361,0.007206732183849133
246,0.23550755762182624,0.9054487607690644,0.08714666112278012,0.04884587416265136,0.0087417358826752,0.0029480599520514852,0.001089155433704581,0.006536821132769288
247,0.07910982441344537,0.9178195503354244,0.062721560912363,0.02637105415551812,0.008766425489071451,0.0029222828834610626,0.003517478430610722,0.9142689233746045
248,0.3834937154028892,0.7911163326320908,0.286084229817175,0.05729119289955814,0.008774810555752905,0.003038553726075939,0.004548460751513843,0.008174647991396179
249,0.8766059312655418,0.27752642278457135,0.06257961136875068,0.00011013026064654638,0.00875895527924558,0.0029242593036844476,0.0033563349503302766,0.006013168064497695
250,0.07901701213209658,0.9178455749031459,0.0233830764487177,0.3538884825073255,0.008447526382213466,0.0028766806547872083,0.0031398907660369108,0.005342067256549605
251,0.8764707088208511,0.91781790626297,0.06269798545457961,0.02637105415551812,0.008763390318728166,0.0029222828834610626,0.003519313472494811,0.006352305749752064
252,0.07912759248367507,0.2775074771155476,0.02338327834618902,0.8613912716779407,0.008439695478826718,0.002874186315314462,0.003139644467112395,0.005343001486102576
253,0.876508283627013,0.9179199668401673,0.06278566658220809,0.02637105415551812,0.00874293824547046,0.0029196982950165182,0.0035148901479717435,0.006351807159344308
254,0.07912759248359981,0.2774149585199389,0.06274816102878157,0.6474648533893962,0.008739882294379376,0.0029222828834610626,0.0035065661265185127,0.006330148718175552
255,0.07909997333118181,0.9177956872579717,0.06260631597561758,0.04695947422703866,0.008760595371158286,0.002923232335113664,0.0010328635309119797,0.006354322427473419
256,0.8766059312655418,0.27752642278457135,0.06257961136875068,0.00011013026064654638,0.00875895527924558,0.0029242593036844476,0.0033563349503302766,0.006013168064497695
257,0.8766059312655418,0.27752642278457135,0.06257961136875068,0.00011013026064654638,0.00875895527924558,0.0029242593036844476,0.0033563349503302766,0.006013168064497695
258,0.35707799476707675,0.7519028175370417,0.39097232682553196,0.08813801548368749,0.008753841861954523,0.002939422811933128,0.0036697010493085638,0.00661461753388133
259,0.8765062826387721,0.9178003033919289,0.06274700517528706,0.04110663775909651,0.008750489053564082,0.002926660744801474,0.0035160702403748112,0.006349790294961965
260,0.14339218337474108,0.8765309130263926,0.07205362480516427,0.08054374206149738,0.008766775783811988,0.002925653341890929,0.0034943938142326016,0.005264646193728421
261,0.8764026677906926,0.9178520222723933,0.06278767076182158,0.13818829170255875,0.008751770341670647,0.0029191527502807663,0.0035150671416879346,0.00633526238890047
262,0.8765062826387721,0.9178003033919289,0.06274700517528706,0.04110663775909651,0.008750489053564082,0.002926660744801474,0.0035160702403748112,0.006349790294961965
263,0.8765111481513639,0.5158222840930602,0.06271983141501863,0.02637105415551812,0.008765514942802081,0.0029222828834610626,0.003518048215239086,0.00635195798234726
264,0.07910481262987756,0.27733808179731095,0.8853122080176323,0.05729119289955814,0.00875025646287855,0.0029267218143630026,0.0035157736927736148,0.006349257912907597
265,0.3837280476543634,0.7909588643008605,0.28577693294659,0.057339477129671794,0.008790936156017714,0.0030432355969897025,0.004352585328076438,0.007766960224905246
266,0.8765114715464496,0.27750641836254686,0.023353960387453358,0.0820863407354391,0.008447692198331925,0.002874186315314462,0.003150283857297349,0.00533512787978111
267,0.876473051381088,0.2774125508723194,0.06272259644586334,0.02637105415551812,0.008760161329559873,0.0029222828834610626,0.003518282593694451,0.006349045058736052
268,0.8764861123682627,0.8517646445707884,0.06272203149943173,0.02637105415551812,0.008762648140864386,0.0029222828834610626,0.0035198149907796324,0.006352660681721671
269,0.38365104774263525,0.7910631528365749,0.28572275285488763,0.05723659286425365,0.008791774845145598,0.003039540947456026,0.0013384326779730153,0.008203313421209935
270,0.8764267923898063,0.9177993371274111,0.06272784245256284,0.02637105415551812,0.008745347344189405,0.0029222828834610626,0.0035150691119649915,0.006320159681389365
271,0.07901701213213988,0.9178107815246895,0.06274765064608125,0.13829134337336307,0.00874799132875679,0.002924818956173709,0.0035068412031231825,0.006329042008830718
272,0.07901701213213988,0.9178107815246895,0.06274765064608125,0.13829134337336307,0.00874799132875679,0.002924818956173709,0.0035068412031231825,0.006329042008830718
273,0.8766059312655418,0.27752642278457135,0.06257961136875068,0.00011013026064654638,0.00875895527924558,0.0029242593036844476,0.0033563349503302766,0.006013168064497695
274,0.11714159131124773,0.9177992121947324,0.7386389104833517,0.02637105415551812,0.008765514942802081,0.0029222828834610626,0.0035207393742732415,0.006353437718758805
275,0.5467093430393059,0.8518365163099691,0.208237183798323,0.2323104800716123,0.008863065659547066,0.0028598243327918283,0.0027142824900057505,0.006119539535741653
276,0.0791275924836843,0.27760001471297935,0.008207080083647879,0.9545535510026535,0.008149805483277841,0.002826881220567783,0.0028111102286373806,0.004509720907220934
277,0.07910019130557357,0.9177780900591641,0.8853682509138532,0.05729119289955814,0.008759105956027186,0.00292626715410233,0.0035169489470290825,0.00635032583398193
278,0.8764738422665835,0.8517646445707943,0.06266334672072206,0.02637105415551812,0.008764680115127675,0.0029222828834610626,0.0035184126515814002,0.006352471383164298
279,0.07901701213213988,0.9178107815246895,0.06274765064608125,0.13829134337336307,0.00874799132875679,0.002924818956173709,0.0035068412031231825,0.006329042008830718
280,0.0790170121321256,0.9178803548040954,0.008207008906319096,0.6470628546924905,0.008157367757788601,0.002829334513228122,0.0028113307589477405,0.004508932314473511
281,0.8766059312655418,0.27752642278457135,0.06257961136875068,0.00011013026064654638,0.00875895527924558,0.0029242593036844476,0.0033563349503302766,0.006013168064497695
282,0.38365104774263525,0.7910631528365749,0.28572275285488763,0.05723659286425365,0.008791774845145598,0.003039540947456026,0.0013384326779730153,0.008203313421209935
283,0.07909075138231972,0.27737764514426355,0.8853530325024355,0.05729119289955814,0.00876453793803271,0.0029260299445057264,0.0035152118928041573,0.006350228764603831
284,0.35730164645466783,0.7517251987504812,0.39062358404872377,0.08820767823901071,0.008769928984612825,0.002943951966249695,0.003511658152886468,0.006284663812171008
285,0.07901701213213988,0.9178107815246895,0.06274765064608125,0.13829134337336307,0.00874799132875679,0.002924818956173709,0.0035068412031231825,0.006329042008830718
286,0.8765087387864661,0.9178134181571076,0.06268844745172354,0.02637105415551812,0.008761362743577668,0.0029222828834610626,0.003518937634687194,0.006348039332530613
287,0.587495320040731,0.9177844940462951,0.1665380750971017,0.04110663775909651,0.008750489053564082,0.0029259883554688783,0.0035195477973491277,0.006352952094984773
288,0.07901701213209658,0.9178455749031459,0.0233830764487177,0.3538884825073255,0.008447526382213466,0.0028766806547872083,0.0031398907660369108,0.005342067256549605
289,0.07901701213213988,0.9178107815246895,0.06274765064608125,0.13829134337336307,0.00874799132875679,0.002924818956173709,0.0035068412031231825,0.006329042008830718
290,0.07908168353446221,0.9178461503476236,0.0627904494983086,0.01400439689887659,0.008744790032206962,0.0029239849930894467,0.003510942316955937,0.006341020159550774
291,0.8766059312655418,0.27752642278457135,0.06257961136875068,0.00011013026064654638,0.00875895527924558,0.0029242593036844476,0.0033563349503302766,0.006013168064497695
292,0.07897326553238354,0.917853615052308,0.023355497818436363,0.35383199900354706,0.008442050466480005,0.0028761521741629227,0.0031408081689994764,0.005338816433567094
293,0.07910982441344537,0.9178195503354244,0.062721560912363,0.02637105415551812,0.008766425489071451,0.0029222828834610626,0.003517478430610722,0.9142689233746045
294,0.3837280476543634,0.7909588643008605,0.28577693294659,0.057339477129671794,0.008790936156017714,0.0030432355969897025,0.004352585328076438,0.007766960224905246
295,0.0790810144552911,0.917835447780632,0.02295797231059727,0.057247051189652676,0.008755448121088432,0.002926257553102181,0.0035150889903797066,0.006347001102813483
296,0.8764787435253572,0.917801602248682,0.06271444313286374,0.02637105415551812,0.008761485335829986,0.0029222828834610626,0.00351803200577909,0.00635681617079338
297,0.07901701213213988,0.9178107815246895,0.06274765064608125,0.13829134337336307,0.00874799132875679,0.002924818956173709,0.0035068412031231825,0.006329042008830718
298,0.8766059312655418,0.27752642278457135,0.06257961136875068,0.00011013026064654638,0.00875895527924558,0.0029242593036844476,0.0033563349503302766,0.006013168064497695
299,0.07908883117068229,0.9200764617172943,0.8852761680163206,0.05723659286425365,0.008770388442424277,0.0029107955445551426,0.0010340908797417138,0.005220883938003379
300,0.5539606756964496,0.7849274521412257,0.0034711804108167646,0.08047114911863458,0.009176188083038215,0.0029457050716876192,0.0010875818929401526,0.006596679826756805
301,0.07909248043763616,0.9177787984679135,0.06269396382033626,0.05729119289955814,0.008762109995027105,0.0029257609810179387,0.003517610444876914,0.9142439768129303
302,0.12017992320165377,0.40435948549736395,0.0034773309702126865,0.35480795057566855,0.009046911096783246,0.0029447483222428553,0.0036960992928587143,0.006573623309160975
303,0.07903883146836645,0.9201000860025974,0.8854561397666052,0.05729119289955814,0.008753465358662456,0.0029098501316355157,0.0035143332091202963,0.005202633192310698
304,0.079037003757169,0.27742648080864674,0.8854281580978457,0.057339477129671794,0.008755489542759967,0.0029244481275234554,0.0035165737227221554,0.006345090851609177
305,0.07901701213209658,0.9178455749031459,0.0233830764487177,0.3538884825073255,0.008447526382213466,0.0028766806547872083,0.0031398907660369108,0.005342067256549605
306,0.8766059312655418,0.27752642278457135,0.06257961136875068,0.00011013026064654638,0.00875895527924558,0.0029242593036844476,0.0033563349503302766,0.006013168064497695
307,0.07910777614169033,0.9178063390512294,0.06269791356969538,0.02637105415551812,0.008765514942802081,0.0029222828834610626,0.003519824847193689,0.9143001474388973
308,0.07901701213213988,0.9178107815246895,0.06274765064608125,0.13829134337336307,0.00874799132875679,0.002924818956173709,0.0035068412031231825,0.006329042008830718
309,0.07901701213213988,0.9178107815246895,0.06274765064608125,0.13829134337336307,0.00874799132875679,0.002924818956173709,0.0035068412031231825,0.006329042008830718
310,0.07910796050696275,0.9178017973398463,0.06271630286369141,0.02637105415551812,0.008765194192971065,0.0029222828834610626,0.00351966064901136,0.9142998394038114
311,0.07901701213213988,0.9178107815246895,0.06274765064608125,0.13829134337336307,0.00874799132875679,0.002924818956173709,0.0035068412031231825,0.006329042008830718
312,0.0790723434327849,0.9178421224006965,0.06273769779291488,0.05723659286425365,0.00876216910182229,0.0029248145941169236,0.0011278065488957401,0.9142161021119388
313,0.0790663071343985,0.2774402784198149,0.8853718599098112,0.026345371685612615,0.008761167299556137,0.002923232335113664,0.001095821129168028,0.006344742256022266
314,0.8764861123682627,0.8517646445707884,0.06272203149943173,0.02637105415551812,0.008762648140864386,0.0029222828834610626,0.0035198149907796324,0.006352660681721671
315,0.13994293134070182,0.9177954622204226,0.8545204480207239,0.026345371685612615,0.008757019332147275,0.002904276850061396,0.0010360126330634127,0.006342964920225634
316,0.876508283627013,0.9179199668401673,0.06278566658220809,0.02637105415551812,0.00874293824547046,0.0029196982950165182,0.0035148901479717435,0.006351807159344308
317,0.38365104774263525,0.7910631528365749,0.28572275285488763,0.05723659286425365,0.008791774845145598,0.003039540947456026,0.0013384326779730153,0.008203313421209935
318,0.9052386180906457,0.9177952930028573,0.02663165884872568,0.04700894711651336,0.008709534588903509,0.002860023254336822,0.002561923919718457,0.005550951276330198
319,0.876456044051891,0.9352506756695663,0.06271387761312389,0.02637105415551812,0.008762408132609189,0.0028975134585482614,0.003452155752035793,0.006356068807154543
320,0.07910777614169033,0.9178063390512294,0.06269791356969538,0.02637105415551812,0.008765514942802081,0.0029222828834610626,0.003519824847193689,0.9143001474388973
321,0.8764026677906926,0.9178520222723933,0.06278767076182158,0.13818829170255875,0.008751770341670647,0.0029191527502807663,0.0035150671416879346,0.00633526238890047
322,0.07901701213213988,0.9178107815246895,0.06274765064608125,0.13829134337336307,0.00874799132875679,0.002924818956173709,0.0035068412031231825,0.006329042008830718
323,0.8763566515771162,0.917841498898725,0.8853826036051207,0.05729119289955814,0.008739930299897088,0.0029181025447606703,0.0035167225982669055,0.006352834035829331
324,0.8766191517305877,0.9178482613473257,0.06269716078274407,0.026393767092933396,0.008759005359805845,0.0029241970623195175,0.0033635129378781895,0.006034953374629177
325,0.07911024450314331,0.27738749272309765,0.8852904837911973,0.02637105415551812,0.008765208129342972,0.0029222828834610626,0.003518394239231747,0.00634947799485335
326,0.07901701213213988,0.9178107815246895,0.06274765064608125,0.13829134337336307,0.00874799132875679,0.002924818956173709,0.0035068412031231825,0.006329042008830718
327,0.028699287875661728,0.9281165097273194,0.000689133805709625,0.04700352882575267,0.008417576022761355,0.0028360928432563733,0.0022952557560243147,0.00497035110263516
328,0.8765456723961499,0.9177980654039398,0.06261929053283385,0.026345371685612615,0.402301100710669,0.002923232335113664,0.0010352410916122268,0.006344411743013514
329,0.07910481262987756,0.27733808179731095,0.8853122080176323,0.05729119289955814,0.00875025646287855,0.0029267218143630026,0.0035157736927736148,0.006349257912907597
330,0.07910777614169033,0.9178063390512294,0.06269791356969538,0.02637105415551812,0.008765514942802081,0.0029222828834610626,0.003519824847193689,0.9143001474388973
331,0.0790170121321256,0.9178803548040954,0.008207008906319096,0.6470628546924905,0.008157367757788601,0.002829334513228122,0.0028113307589477405,0.004508932314473511
332,0.07910777614169033,0.9178063390512294,0.06269791356969538,0.02637105415551812,0.008765514942802081,0.0029222828834610626,0.003519824847193689,0.9143001474388973
333,0.8766191517305877,0.9178482613473257,0.06269716078274407,0.026393767092933396,0.008759005359805845,0.0029241970623195175,0.0033635129378781895,0.006034953374629177
334,0.07904996718947525,0.9179242575381119,0.0028729553020844143,0.6470727167277525,0.007873290633628537,0.0027803545809298256,0.0025195307969717307,0.0038075336541040293
335,0.07905842567391858,0.918027349893347,0.00035218764573626633,0.9999954179037871,0.007129954804115623,0.002634384154021935,0.001470699921992192,0.0021019455456051275
336,0.813154475649803,0.8484781054670313,0.008131583608103515,0.6918535950514849,0.00789356633686156,0.002803761295297579,0.0026566393921420147,0.004015116460939702
337,0.07910982441344537,0.9178195503354244,0.062721560912363,0.02637105415551812,0.008766425489071451,0.0029222828834610626,0.003517478430610722,0.9142689233746045
338,0.07901701213209658,0.9178455749031459,0.0233830764487177,0.3538884825073255,0.008447526382213466,0.0028766806547872083,0.0031398907660369108,0.005342067256549605
339,0.41043294306237754,0.7368387261369472,0.3517485939658765,0.05729119289955814,0.008762535249985489,0.0029617688354263995,0.029478114482217137,0.006901766169140394
340,0.8764637805570061,0.9178039263059897,0.06271669672802173,0.02637105415551812,0.008761647421362317,0.0029222828834610626,0.0035183346777286823,0.0063519349375655565
341,0.8766059312655418,0.27752642278457135,0.06257961136875068,0.00011013026064654638,0.00875895527924558,0.0029242593036844476,0.0033563349503302766,0.006013168064497695
342,0.0790499671894023,0.917819928456814,0.06271030362348846,0.04700466338532438,0.008743691156059165,0.0029222828834610626,0.003510162557367341,0.006332112317902189
343,0.876456865328532,0.9178131577207174,0.06271905021295138,0.05729119289955814,0.008754859498710282,0.00292723607016957,0.0035195065330245667,0.006348457758532652
344,0.07909634096523639,0.9178154073754216,0.8853501864519648,0.02637105415551812,0.008764999184579096,0.0029222828834610626,0.003520570540924393,0.006354522038549114
345,0.5465678465240423,0.8517646445707459,0.20840275358994179,0.02637105415551812,0.009130640386376558,0.0029222828834610626,0.0037240964868955266,0.007892105830335831
346,0.8764738422665835,0.8517646445707943,0.06266334672072206,0.02637105415551812,0.008764680115127675,0.0029222828834610626,0.0035184126515814002,0.006352471383164298
347,0.07910777614169033,0.9178063390512294,0.06269791356969538,0.02637105415551812,0.008765514942802081,0.0029222828834610626,0.003519824847193689,0.9143001474388973
348,0.8764026677906926,0.9178520222723933,0.06278767076182158,0.13818829170255875,0.008751770341670647,0.0029191527502807663,0.0035150671416879346,0.00633526238890047
349,0.0790663071343985,0.2774402784198149,0.8853718599098112,0.026345371685612615,0.008761167299556137,0.002923232335113664,0.001095821129168028,0.006344742256022266
350,0.8764771745208512,0.917862576525821,0.023357726320450228,0.3534875615546838,0.008467515264580918,0.002872040518696644,0.0009260684003299796,0.005366076213474345
351,0.6768656705193496,0.5467612028334957,0.14074117434712471,0.05729119289955814,0.008768344592415357,0.00298134481855571,0.0605679246402734,0.007205567443514949
352,0.07912759248367507,0.2775074771155476,0.02338327834618902,0.8613912716779407,0.008439695478826718,0.002874186315314462,0.003139644467112395,0.005343001486102576
353,0.876508283627013,0.9179199668401673,0.06278566658220809,0.02637105415551812,0.00874293824547046,0.0029196982950165182,0.0035148901479717435,0.006351807159344308
354,0.07904996718947316,0.9178547182922331,0.023368303218495586,0.13829648959349514,0.00844337370059327,0.002874186315314462,0.0031428646503803624,0.0053446590604721515
355,0.8525837101966315,0.9177858829165709,0.06269811924620997,0.05729119289955814,0.008757746845341526,0.002926037629572954,0.0035206027278764877,0.0063587790605382595
356,0.07898114686615017,0.9179139380840715,0.8854269450322327,0.02637105415551812,0.008744541746835114,0.00291879564073788,0.003516155106437866,0.006351945964311261
357,0.07909969286582087,0.9177762581010315,0.8852580668662158,0.05729119289955814,0.008754364023672233,0.002925436052075492,0.0035200878377044725,0.006352612233603122
358,0.8764026677906926,0.9178520222723933,0.06278767076182158,0.13818829170255875,0.008751770341670647,0.0029191527502807663,0.0035150671416879346,0.00633526238890047
359,0.07908242114370237,0.9178298684532622,0.001418678806037862,0.13809605416487858,0.008759372051589475,0.00292419611806033,0.0009566462437369938,0.0058138380665506495
360,0.876508283627013,0.9179199668401673,0.06278566658220809,0.02637105415551812,0.00874293824547046,0.0029196982950165182,0.0035148901479717435,0.006351807159344308
361,0.07901701213212448,0.917915121231742,0.0028747806826002727,0.8611804207761885,0.007877163279584683,0.0027827675019301986,0.002517146649234221,0.0038056869998504945
362,0.8764891324411249,0.2773155839905005,0.06275133520715578,0.05729119289955814,0.00875645350614608,0.002926669987994023,0.0035148547853841887,0.006343394027042464
363,0.07910818992976336,0.9177767147449669,0.8853522851123427,0.05729119289955814,0.00876533138118018,0.002926025414647555,0.003520058398173489,0.006358309075289756
364,0.8765136178069065,0.9177802624724855,0.06269916232617902,0.13829151381079363,0.008767853663062396,0.002923650677132255,0.0033636823106679152,0.006019233327562426
365,0.8766059312655418,0.27752642278457135,0.06257961136875068,0.00011013026064654638,0.00875895527924558,0.0029242593036844476,0.0033563349503302766,0.006013168064497695
366,0.8766059312655418,0.27752642278457135,0.06257961136875068,0.00011013026064654638,0.00875895527924558,0.0029242593036844476,0.0033563349503302766,0.006013168064497695
367,0.07910796050696275,0.9178017973398463,0.06271630286369141,0.02637105415551812,0.008765194192971065,0.0029222828834610626,0.00351966064901136,0.9142998394038114
368,0.07910357503308159,0.9178053057992328,0.06267878368971935,0.02637105415551812,0.008765687815074367,0.0029222828834610626,0.003518246066690898,0.9143397210561169
369,0.07901701213213988,0.9178107815246895,0.06274765064608125,0.13829134337336307,0.00874799132875679,0.002924818956173709,0.0035068412031231825,0.006329042008830718
370,0.07910344417306338,0.46813748494191215,0.8853816029447498,0.04110663775909651,0.008750489053564082,0.002926518636122248,0.0035187986372756967,0.006356174379349269
371,0.07906699921655451,0.9177865378572267,0.06264360520738968,0.13817452493255392,0.008764903845159102,0.0029257692316591883,0.0010318861156202674,0.006351241357598482
372,0.07901701213213602,0.9180193397168104,0.00012345374568359103,0.99583800753275,0.007092929175421023,0.0026476141432213857,0.0018067361737448041,0.002288197018232348
373,0.07910982441344537,0.9178195503354244,0.062721560912363,0.02637105415551812,0.008766425489071451,0.0029222828834610626,0.003517478430610722,0.9142689233746045
374,0.07908883117068229,0.9200764617172943,0.8852761680163206,0.05723659286425365,0.008770388442424277,0.0029107955445551426,0.0010340908797417138,0.005220883938003379
375,0.876508283627013,0.9179199668401673,0.06278566658220809,0.02637105415551812,0.00874293824547046,0.0029196982950165182,0.0035148901479717435,0.006351807159344308
376,0.8764564018391549,0.3443959327270634,0.061332828708380305,0.015543669919181208,0.008723369470860649,0.0029220513048887242,0.0029159448524490226,0.0063160807655520245
377,0.8765083636197766,0.9178068851739883,0.0626796043060693,0.02637105415551812,0.008765654218980831,0.0029222828834610626,0.0035165147146417387,0.0063582090081828095
378,0.07903691506351135,0.9199975976486914,0.8853696577034461,0.057339477129671794,0.008768921254813874,0.002923510367898659,0.0033612532267876245,0.004969486381801134
379,0.9394882128493084,0.9548483677159922,0.027451814139734076,0.026393767092933396,0.008756735403603123,0.00290659108315882,0.0035195640513601503,0.006356825140129705
380,0.07905374906360442,0.9178620115758667,0.8854055652168812,0.026393767092933396,0.008760775527838728,0.0029235876667737474,0.003518196877521868,0.0063569210197273055
381,0.07910982441344537,0.9178195503354244,0.062721560912363,0.02637105415551812,0.008766425489071451,0.0029222828834610626,0.003517478430610722,0.9142689233746045
382,0.07906699921655451,0.9177865378572267,0.06264360520738968,0.13817452493255392,0.008764903845159102,0.0029257692316591883,0.0010318861156202674,0.006351241357598482
383,0.07904940485379713,0.9178543882089805,0.06275927354552562,0.057339477129671794,0.008756179768186111,0.0029235154511896805,0.003516173822710988,0.9141439018494869
384,0.8765114715464496,0.27750641836254686,0.023353960387453358,0.0820863407354391,0.008447692198331925,0.002874186315314462,0.003150283857297349,0.00533512787978111
385,0.07910982441344537,0.9178195503354244,0.062721560912363,0.02637105415551812,0.008766425489071451,0.0029222828834610626,0.003517478430610722,0.9142689233746045
386,0.3896470685538989,0.855600254813919,0.2568742222570608,0.05729119289955814,0.009144578999130223,0.002928841985969289,0.003717189338216703,0.006496203140539152
387,0.546822191582017,0.8516441528797956,0.2081545702006996,0.026393767092933396,0.00914741887301884,0.002926785632511478,0.003563711537371674,0.007498493118760953
388,0.07906181951534896,0.9177970588915075,0.8853857173355352,0.05729119289955814,0.008764390967096428,0.002925462844342549,0.0035175243023336453,0.006346886162014263
389,0.07906699921655451,0.9177865378572267,0.06264360520738968,0.13817452493255392,0.008764903845159102,0.0029257692316591883,0.0010318861156202674,0.006351241357598482
390,0.5874953200408011,0.8259382242338633,0.16653807509711566,0.04110663775909651,0.008750489053564082,0.002930580426908245,0.0035630992664149705,0.008969312781678685
391,0.8764541604694079,0.9177847425948886,0.06274700517528706,0.04110663775909651,0.008750489053564082,0.0029269499826132354,0.0035172364416081307,0.006353722656009966
392,0.07906699921655247,0.9178213406260805,0.02334192214218295,0.3536754276216392,0.008463858821270936,0.0028776152926836096,0.0009239009753915225,0.005360806864473804
393,0.07909608309522143,0.27740333657666133,0.885432312257881,0.02637105415551812,0.008765676554563603,0.0029222828834610626,0.003516056451798992,0.006351928525576706
394,0.07910777614169033,0.9178063390512294,0.06269791356969538,0.02637105415551812,0.008765514942802081,0.0029222828834610626,0.003519824847193689,0.9143001474388973
395,0.07909843900553082,0.9178507663543158,8.162760932737089e-05,0.138118421152736,0.00875812201299998,0.002844280391955492,0.00325798449006915,0.005809276164879342
396,0.8765010278906341,0.9178486881202723,0.003847548359334629,0.1380939100174722,0.008767438786880919,0.0028402973518913384,0.0035224394129141643,0.006352495379015644
397,0.876508283627013,0.9179199668401673,0.06278566658220809,0.02637105415551812,0.00874293824547046,0.0029196982950165182,0.0035148901479717435,0.006351807159344308
398,0.8764461838916818,0.9178607544497854,0.02746376156937597,0.05729119289955814,0.008764082711825017,0.002926868131679177,0.003517166673969882,0.006353690509172007
399,0.07901701213213988,0.9178107815246895,0.06274765064608125,0.13829134337336307,0.00874799132875679,0.002924818956173709,0.0035068412031231825,0.006329042008830718
400,0.8764942753775693,0.9177905257253792,0.06265819871492533,0.05729119289955814,0.008756872618620317,0.0029249354623466554,0.0035198257995694257,0.006345470070475346
401,0.07901701213213988,0.9178107815246895,0.06274765064608125,0.13829134337336307,0.00874799132875679,0.002924818956173709,0.0035068412031231825,0.006329042008830718
402,0.07901701213213988,0.9178107815246895,0.06274765064608125,0.13829134337336307,0.00874799132875679,0.002924818956173709,0.0035068412031231825,0.006329042008830718
403,0.07910982441344537,0.9178195503354244,0.062721560912363,0.02637105415551812,0.008766425489071451,0.0029222828834610626,0.003517478430610722,0.9142689233746045
404,0.07910777614169033,0.9178063390512294,0.06269791356969538,0.02637105415551812,0.008765514942802081,0.0029222828834610626,0.003519824847193689,0.9143001474388973
405,0.8765010278906341,0.9178486881202723,0.003847548359334629,0.1380939100174722,0.008767438786880919,0.0028402973518913384,0.0035224394129141643,0.006352495379015644
406,0.07908274602090282,0.9179290397394281,0.885414388191633,0.08808127790667782,0.008747387643615887,0.002921543727866979,0.0035190556199468604,0.006347346774066362
407,0.5465678465242374,0.8518230447555362,0.08440999291232919,0.0820863407354391,0.00881705222440218,0.002874186315314462,0.003334417901541215,0.0066615872750349
408,0.07910796050696275,0.9178017973398463,0.06271630286369141,0.02637105415551812,0.008765194192971065,0.0029222828834610626,0.00351966064901136,0.9142998394038114
409,0.8765111481513639,0.5158222840930602,0.06271983141501863,0.02637105415551812,0.008765514942802081,0.0029222828834610626,0.003518048215239086,0.00635195798234726
410,0.8764599172082796,0.9178577930512122,0.06267889144790043,0.02637105415551812,0.008739479224762719,0.0028850421636071127,0.0034195951855781827,0.006331152897029737
411,0.07901701213213988,0.9178107815246895,0.06274765064608125,0.13829134337336307,0.00874799132875679,0.002924818956173709,0.0035068412031231825,0.006329042008830718
412,0.8765111481513639,0.5158222840930602,0.06271983141501863,0.02637105415551812,0.008765514942802081,0.0029222828834610626,0.003518048215239086,0.00635195798234726
413,0.07910862211447035,0.27751780327021586,0.8853623026520151,0.02637105415551812,0.008765184595848746,0.0029222828834610626,0.003516326844060261,0.006358364795108157
414,0.07908274602090282,0.9179290397394281,0.885414388191633,0.08808127790667782,0.008747387643615887,0.002921543727866979,0.0035190556199468604,0.006347346774066362
415,0.07901701213213988,0.9178107815246895,0.06274765064608125,0.13829134337336307,0.00874799132875679,0.002924818956173709,0.0035068412031231825,0.006329042008830718
416,0.07912759248367507,0.2775074771155476,0.02338327834618902,0.8613912716779407,0.008439695478826718,0.002874186315314462,0.003139644467112395,0.005343001486102576
417,0.07903747709472243,0.27749252003828323,0.06273629825035389,0.8612307571758736,0.008761607832923806,0.0029237286432340485,0.0035175870151225985,0.006350461697350963
418,0.8764541604694079,0.9177847425948886,0.06274700517528706,0.04110663775909651,0.008750489053564082,0.0029269499826132354,0.0035172364416081307,0.006353722656009966
419,0.07901701213209658,0.9178455749031459,0.0233830764487177,0.3538884825073255,0.008447526382213466,0.0028766806547872083,0.0031398907660369108,0.005342067256549605
420,0.07910777614169033,0.9178063390512294,0.06269791356969538,0.02637105415551812,0.008765514942802081,0.0029222828834610626,0.003519824847193689,0.9143001474388973
421,0.0790170121321256,0.9178803548040954,0.008207008906319096,0.6470628546924905,0.008157367757788601,0.002829334513228122,0.0028113307589477405,0.004508932314473511
422,0.8766059312655418,0.27752642278457135,0.06257961136875068,0.00011013026064654638,0.00875895527924558,0.0029242593036844476,0.0033563349503302766,0.006013168064497695
423,0.8764852636912338,0.9178239033963673,0.06272624821396992,0.05729119289955814,0.008757860361622093,0.002926175387943655,0.0035173866167360996,0.006352154402836748
424,0.07901701213213368,0.9179498741902667,0.0010067329275810343,0.9544772058122329,0.007606572674169374,0.0027369668053422807,0.002253743180226064,0.0032120983415603777
425,0.8764664945809774,0.9178067678138617,0.06270282882802199,0.02637105415551812,0.008762384174271524,0.0029222828834610626,0.003517305716761501,0.006348967077614822
426,0.5467933206348832,0.8517590458637212,0.015104212718830836,0.026350290899053837,0.009146986064826003,0.0028433429440960323,0.0037319070460666327,0.00791356908556917
427,0.8766059312655418,0.27752642278457135,0.06257961136875068,0.00011013026064654638,0.00875895527924558,0.0029242593036844476,0.0033563349503302766,0.006013168064497695
428,0.07910777614169033,0.9178063390512294,0.06269791356969538,0.02637105415551812,0.008765514942802081,0.0029222828834610626,0.003519824847193689,0.9143001474388973
429,0.07906386896394875,0.9178162776092326,0.885385485196135,0.05729119289955814,0.008757678669691748,0.002924338962169956,0.003519007927848111,0.006352985611307982
430,0.8764026677906926,0.9178520222723933,0.06278767076182158,0.13818829170255875,0.008751770341670647,0.0029191527502807663,0.0035150671416879346,0.00633526238890047
431,0.07905457365980924,0.9178430853688325,0.8854375060426579,0.057339477129671794,0.008765668511775834,0.0029245574872979554,0.0035179091659772797,0.0063515283614348555
432,0.07906699921655451,0.9177865378572267,0.06264360520738968,0.13817452493255392,0.008764903845159102,0.0029257692316591883,0.0010318861156202674,0.006351241357598482
433,0.8764861123682627,0.8517646445707884,0.06272203149943173,0.02637105415551812,0.008762648140864386,0.0029222828834610626,0.0035198149907796324,0.006352660681721671
434,0.079075730368399,0.27747991266615113,0.8854286012500644,0.02637105415551812,0.008762042887669567,0.002918774314057238,0.003509199639704096,0.006332620893020818
435,0.0790648239583802,0.9178321331960557,0.8852609593105835,0.026393767092933396,0.00876046954235965,0.002924297679633475,0.003367386149557067,0.0060351369465994325
436,0.0790170121321256,0.9178803548040954,0.008207008906319096,0.6470628546924905,0.008157367757788601,0.002829334513228122,0.0028113307589477405,0.004508932314473511
437,0.07903883146836645,0.9201000860025974,0.8854561397666052,0.05729119289955814,0.008753465358662456,0.0029098501316355157,0.0035143332091202963,0.005202633192310698
438,0.8765457554966813,0.9178068453340397,0.06269806653513761,0.0820863407354391,0.008766878584816448,0.002874186315314462,0.003334417901541215,0.006353931848315613
439,0.8764802567663117,0.9178477567406496,0.06272517934797456,0.04110663775909651,0.008750489053564082,0.0029190528251125964,0.003517529308416947,0.006353618835953775
440,0.07901701213213988,0.9178107815246895,0.06274765064608125,0.13829134337336307,0.00874799132875679,0.002924818956173709,0.0035068412031231825,0.006329042008830718
441,0.8764950528992518,0.27771728073686724,0.06266796232479169,0.00011003487771367717,0.008742888256640735,0.0029197604406412873,0.003507389186726011,0.00632887892165702
442,0.07901701213213368,0.9179498741902667,0.0010067329275810343,0.9544772058122329,0.007606572674169374,0.0027369668053422807,0.002253743180226064,0.0032120983415603777
443,0.14339218337474108,0.8765309130263926,0.07205362480516427,0.08054374206149738,0.008766775783811988,0.002925653341890929,0.0034943938142326016,0.005264646193728421
444,0.8766059312655418,0.27752642278457135,0.06257961136875068,0.00011013026064654638,0.00875895527924558,0.0029242593036844476,0.0033563349503302766,0.006013168064497695
445,0.07912759248367507,0.2775074771155476,0.02338327834618902,0.8613912716779407,0.008439695478826718,0.002874186315314462,0.003139644467112395,0.005343001486102576
446,0.8764637805570061,0.9178039263059897,0.06271669672802173,0.02637105415551812,0.008761647421362317,0.0029222828834610626,0.0035183346777286823,0.0063519349375655565
447,0.8763566515771162,0.917841498898725,0.8853826036051207,0.05729119289955814,0.008739930299897088,0.0029181025447606703,0.0035167225982669055,0.006352834035829331
448,0.8765114715464496,0.27750641836254686,0.023353960387453358,0.0820863407354391,0.008447692198331925,0.002874186315314462,0.003150283857297349,0.00533512787978111
449,0.8764674098934416,0.917808561410032,0.0627164160021252,0.04110663775909651,0.008750489053564082,0.0029248545526010463,0.003515067692480054,0.006355368706990305
450,0.8765498587899572,0.917849627854875,0.06265798595506532,0.13812356444905297,0.0085052312486099,0.0028598243327918283,0.0025640031966870126,0.0049252294931369685
451,0.11714159131123475,0.9178059927261523,0.7386389104833517,0.02637105415551812,0.008765181834383157,0.0029222828834610626,0.003520511041772144,0.006358287776534673
452,0.8765061392641867,0.9178026732109458,0.0627370091102181,0.02637105415551812,0.008760753803628082,0.0029222828834610626,0.003514833158644973,0.0063582799525823035
453,0.07901701213213988,0.9178107815246895,0.06274765064608125,0.13829134337336307,0.00874799132875679,0.002924818956173709,0.0035068412031231825,0.006329042008830718
454,0.07910818992976336,0.9177767147449669,0.8853522851123427,0.05729119289955814,0.00876533138118018,0.002926025414647555,0.003520058398173489,0.006358309075289756
455,0.07910777614169033,0.9178063390512294,0.06269791356969538,0.02637105415551812,0.008765514942802081,0.0029222828834610626,0.003519824847193689,0.9143001474388973
456,0.07910796050696275,0.9178017973398463,0.06271630286369141,0.02637105415551812,0.008765194192971065,0.0029222828834610626,0.00351966064901136,0.9142998394038114
457,0.876508283627013,0.9179199668401673,0.06278566658220809,0.02637105415551812,0.00874293824547046,0.0029196982950165182,0.0035148901479717435,0.006351807159344308
458,0.11714159131124773,0.9177992121947324,0.7386389104833517,0.02637105415551812,0.008765514942802081,0.0029222828834610626,0.0035207393742732415,0.006353437718758805
459,0.0791275924836843,0.27760001471297935,0.008207080083647879,0.9545535510026535,0.008149805483277841,0.002826881220567783,0.0028111102286373806,0.004509720907220934
460,0.876473051381088,0.2774125508723194,0.06272259644586334,0.02637105415551812,0.008760161329559873,0.0029222828834610626,0.003518282593694451,0.006349045058736052
461,0.07905557312807383,0.9178422277722162,0.8852739387208939,0.026393767092933396,0.008760611803629657,0.0029232930174357455,0.003364723430262366,0.006035085260468493
462,0.07910796050696275,0.9178017973398463,0.06271630286369141,0.02637105415551812,0.008765194192971065,0.0029222828834610626,0.00351966064901136,0.9142998394038114
463,0.8763847693497552,0.9178212725577647,0.06275129892250826,0.05729119289955814,0.008394076687711919,0.0029246491475159978,0.003519727902368708,0.005781846034572045
464,0.5465678465241047,0.9178047783781216,0.20840275358994179,0.02637105415551812,0.008760181577723831,0.0029222828834610626,0.0035205320415480947,0.0063532176726549365
465,0.07901701213213988,0.9178107815246895,0.06274765064608125,0.13829134337336307,0.00874799132875679,0.002924818956173709,0.0035068412031231825,0.006329042008830718
466,0.11714159131124773,0.9177992121947324,0.7386389104833517,0.02637105415551812,0.008765514942802081,0.0029222828834610626,0.0035207393742732415,0.006353437718758805
467,0.07908883117068229,0.9200764617172943,0.8852761680163206,0.05723659286425365,0.008770388442424277,0.0029107955445551426,0.0010340908797417138,0.005220883938003379
468,0.8764836038330746,0.7911163326320829,0.06272131851921045,0.05729119289955814,0.008757101869028458,0.002925316219434917,0.003516743107806485,0.006346578551751777
469,0.8764802567663117,0.9178477567406496,0.06272517934797456,0.04110663775909651,0.008750489053564082,0.0029190528251125964,0.003517529308416947,0.006353618835953775
470,0.8764852636912338,0.9178239033963673,0.06272624821396992,0.05729119289955814,0.008757860361622093,0.002926175387943655,0.0035173866167360996,0.006352154402836748
471,0.07910796050696275,0.9178017973398463,0.06271630286369141,0.02637105415551812,0.008765194192971065,0.0029222828834610626,0.00351966064901136,0.9142998394038114
472,0.07910796050696275,0.9178017973398463,0.06271630286369141,0.02637105415551812,0.008765194192971065,0.0029222828834610626,0.00351966064901136,0.9142998394038114
473,0.876508283627013,0.9179199668401673,0.06278566658220809,0.02637105415551812,0.00874293824547046,0.0029196982950165182,0.0035148901479717435,0.006351807159344308
474,0.07903256873211757,0.9178324317661145,0.023370082777112933,0.13825731434828395,0.00846046616763634,0.002877728466115625,0.003151319385543101,0.005366595235132201
475,0.8764789726501481,0.9177937458672574,0.06278920387418956,0.02844097795852043,0.008759787452567398,0.0029250934235756044,0.0035198470550070774,0.0063534817143996395
476,0.876508283627013,0.9179199668401673,0.06278566658220809,0.02637105415551812,0.00874293824547046,0.0029196982950165182,0.0035148901479717435,0.006351807159344308
477,0.07910777614169033,0.9178063390512294,0.06269791356969538,0.02637105415551812,0.008765514942802081,0.0029222828834610626,0.003519824847193689,0.9143001474388973
478,0.8765024895282324,0.9177922329784196,0.06267507628958169,0.02637105415551812,0.00876685388312727,0.0029222828834610626,0.0035197169296947123,0.0063519558710628974
479,0.876508283627013,0.9179199668401673,0.06278566658220809,0.02637105415551812,0.00874293824547046,0.0029196982950165182,0.0035148901479717435,0.006351807159344308
480,0.0790726753079241,0.9177795961775451,0.06266164784602384,0.05729119289955814,0.008762109995027105,0.0029266794617988944,0.003517556975140152,0.914268259262458
481,0.07910818992976336,0.9177767147449669,0.8853522851123427,0.05729119289955814,0.00876533138118018,0.002926025414647555,0.003520058398173489,0.006358309075289756
482,0.07903242514604718,0.9178541004292805,0.0014211928025201746,0.1382128169036302,0.008742470193510257,0.0029232463534285043,0.003251165588504433,0.0057935158076681675
483,0.07901701213213988,0.9178107815246895,0.06274765064608125,0.13829134337336307,0.00874799132875679,0.002924818956173709,0.0035068412031231825,0.006329042008830718
484,0.07910777614169033,0.9178063390512294,0.06269791356969538,0.02637105415551812,0.008765514942802081,0.0029222828834610626,0.003519824847193689,0.9143001474388973
485,0.0791244527316882,0.9177481430076248,0.06262189696142523,0.04704462621088927,0.008759759652001911,0.002926785632511478,0.00335898890611922,0.006016240281761137
486,0.0790723434327849,0.9178421224006965,0.06273769779291488,0.05723659286425365,0.00876216910182229,0.0029248145941169236,0.0011278065488957401,0.9142161021119388
487,0.07910357503308159,0.9178053057992328,0.06267878368971935,0.02637105415551812,0.008765687815074367,0.0029222828834610626,0.003518246066690898,0.9143397210561169
488,0.07901701213213988,0.9178107815246895,0.06274765064608125,0.13829134337336307,0.00874799132875679,0.002924818956173709,0.0035068412031231825,0.006329042008830718
489,0.07901701213213988,0.9178107815246895,0.06274765064608125,0.13829134337336307,0.00874799132875679,0.002924818956173709,0.0035068412031231825,0.006329042008830718
490,0.079037003757169,0.27742648080864674,0.8854281580978457,0.057339477129671794,0.008755489542759967,0.0029244481275234554,0.0035165737227221554,0.006345090851609177
491,0.07906699921655451,0.9177865378572267,0.06264360520738968,0.13817452493255392,0.008764903845159102,0.0029257692316591883,0.0010318861156202674,0.006351241357598482
492,0.8764802567662809,0.9178825357964001,0.02337418743211214,0.12282959133818609,0.008449938438012115,0.002871009410356732,0.003149460715235904,0.005362813817090265
493,0.07907516020399269,0.2774599757606303,0.8853286015119941,0.05729119289955814,0.008761686277737076,0.0029243319909277934,0.003519784480389102,0.006351706033467514
494,0.11714159131123475,0.9178059927261523,0.7386389104833517,0.02637105415551812,0.008765181834383157,0.0029222828834610626,0.003520511041772144,0.006358287776534673
495,0.07898114686615017,0.9179139380840715,0.8854269450322327,0.02637105415551812,0.008744541746835114,0.00291879564073788,0.003516155106437866,0.006351945964311261
496,0.07906699921655247,0.9178213406260805,0.02334192214218295,0.3536754276216392,0.008463858821270936,0.0028776152926836096,0.0009239009753915225,0.005360806864473804
497,0.07901701213213988,0.9178107815246895,0.06274765064608125,0.13829134337336307,0.00874799132875679,0.002924818956173709,0.0035068412031231825,0.006329042008830718
498,0.07910982441344537,0.9178195503354244,0.062721560912363,0.02637105415551812,0.008766425489071451,0.0029222828834610626,0.003517478430610722,0.9142689233746045
499,0.07897326553241087,0.9178188247893897,0.06267792919252169,0.13826036996977417,0.00874232092448431,0.00292428163344705,0.0035078657958588504,0.006325191010296198
